%YAML 1.1
%TAG !u! tag:unity3d.com,2011:
--- !u!1045 &1
EditorBuildSettings:
  m_ObjectHideFlags: 0
  serializedVersion: 2
  m_Scenes:
  - enabled: 1
    path: Assets/Resources/Scenes/Menu.unity
  - enabled: 1
    path: Assets/Resources/Scenes/Tuto.unity
  - enabled: 1
    path: Assets/Resources/Scenes/Common.unity
  - enabled: 1
    path: Assets/Resources/Scenes/Victory.unity
  - enabled: 1
    path: Assets/Resources/Scenes/GameOver.unity
  - enabled: 1
    path: Assets/Resources/Scenes/GameLevel.unity
  - enabled: 1
    path: Assets/Resources/Scenes/Elisa/0.unity
  - enabled: 1
    path: Assets/Resources/Scenes/Elisa/1.unity
  - enabled: 1
    path: Assets/Resources/Scenes/Elisa/2.unity
  - enabled: 1
    path: Assets/Resources/Scenes/Elisa/3.unity
  - enabled: 1
    path: Assets/Resources/Scenes/Florent/4.unity
  - enabled: 1
    path: Assets/Resources/Scenes/Florent/5.unity
  - enabled: 1
    path: Assets/Resources/Scenes/Florent/6.unity
  - enabled: 1
    path: Assets/Resources/Scenes/Florent/7.unity
  - enabled: 1
    path: Assets/Resources/Scenes/LD_Sissi/8.unity
  - enabled: 1
    path: Assets/Resources/Scenes/LD_Sissi/9.unity
  - enabled: 1
    path: Assets/Resources/Scenes/LD_Sissi/10.unity
