%YAML 1.1
%TAG !u! tag:unity3d.com,2011:
--- !u!21 &2100000
Material:
  serializedVersion: 6
  m_ObjectHideFlags: 0
  m_PrefabParentObject: {fileID: 0}
  m_PrefabInternal: {fileID: 0}
  m_Name: CRT_Material
  m_Shader: {fileID: 4800000, guid: 1ac6c188bef7fe8478b4c673966ee16e, type: 3}
  m_ShaderKeywords: 
  m_LightmapFlags: 5
  m_CustomRenderQueue: -1
  stringTagMap: {}
  m_SavedProperties:
    serializedVersion: 2
    m_TexEnvs:
    - first:
        name: _MainTex
      second:
        m_Texture: {fileID: 0}
        m_Scale: {x: 1, y: 1}
        m_Offset: {x: 0, y: 0}
    m_Floats:
    - first:
        name: hardPix
      second: -3
    - first:
        name: hardScan
      second: -8
    - first:
        name: maskDark
      second: 0.5
    - first:
        name: maskLight
      second: 1.5
    - first:
        name: resScale
      second: 1
    m_Colors:
    - first:
        name: warp
      second: {r: 0.03125, g: 0.04166, b: 0, a: 0}
